{
    "title": {
        "text": "Speed distribution",
        "font": "Garamond",
        "fontSize": 16
    },
    "$schema": "https://vega.github.io/schema/vega-lite/v4.json",
    "width": "container",
    "height": "container",
    "padding": {
        "left": 10,
        "top": 20,
        "right": 10,
        "bottom": 20
    },
    "autosize": {
        "type": "fit",
        "resize": true
    },
    "data": {
        "name": "table",
        "values": []
    },
    "transform": [
        {
            "window": [
                {
                    "op": "sum",
                    "field": "count",
                    "as": "sum_count"
                }
            ],
            "frame": []
        },
        {
            "calculate": "100*datum.count/datum.sum_count",
            "as": "percentage"
        }
    ],
    "mark": "bar",
    "encoding": {
        "x": {
            "field": "val",
            "type": "ordinal",
            "axis": {
                "labelAngle": 0,
                "title": "Speed [kn]",
                "labelFont": "Garamond",
                "labelFontWeight": "bold"
            },
            "sort": [
                "=0",
                "0-1",
                "1-5",
                "5-10",
                "10-15",
                "15-20",
                "20-25"
            ]
        },
        "y": {
            "field": "percentage",
            "axis": {
                "title": "%",
                "labelFont": "Garamond",
                "labelFontWeight": "bold"
            },
            "type": "quantitative"
        },
        "tooltip": [
            {
                "field": "percentage",
                "type": "quantitative",
                "title": "%",
                "format": ".1f"
            },
            {
                "field": "count",
                "type": "quantitative",
                "title": "N_ships"
            }
        ],
        "color": {
            "field": "color",
            "type": "nominal",
            "scale": null
        }
    },
    "config": {
        "axis": {
            "labelFontSize": 12,
            "titleFont": "Garamond",
            "titleFontSize": 16,
            "titlePadding": 20
        }
    }
}