{
    "title": {
        "text": " Status",
        "font": "Garamond",
        "fontSize": 16
    },
    "$schema": "https://vega.github.io/schema/vega/v5.json",
    "width": 300,
    "height": 350,
    "padding": {
        "left": 10,
        "top": 20,
        "right": 10,
        "bottom": 40
    },
    "autosize": {
        "type": "fit",
        "resize": true
    },
    "signals": [
        {
            "name": "startAngle",
            "value": 0
        },
        {
            "name": "endAngle",
            "value": 6.29
        },
        {
            "name": "padAngle",
            "value": 0
        },
        {
            "name": "innerRadius",
            "value": 0
        },
        {
            "name": "cornerRadius",
            "value": 0
        },
        {
            "name": "sort",
            "value": false
        },
        {
            "name": "width",
            "update": "(containerSize()[0] *0.5 || 250)",
            "on": [
                {
                    "events": {
                        "source": "window",
                        "type": "resize"
                    },
                    "update": "containerSize()[0]*0.5"
                }
            ]
        },
        {
            "name": "height",
            "update": "(containerSize()[1]|| 350)",
            "on": [
                {
                    "events": {
                        "source": "window",
                        "type": "resize"
                    },
                    "update": "containerSize()[1]"
                }
            ]
        }
    ],
    "data": [
        {
            "name": "table",
            "values": [],
            "transform": [
                {
                    "type": "pie",
                    "field": "n_ships",
                    "startAngle": {
                        "signal": "startAngle"
                    },
                    "endAngle": {
                        "signal": "endAngle"
                    },
                    "sort": {
                        "signal": "sort"
                    }
                },
                {
                    "type": "joinaggregate",
                    "ops": [
                        "sum"
                    ],
                    "fields": [
                        "n_ships"
                    ],
                    "as": [
                        "s"
                    ]
                },
                {
                    "type": "formula",
                    "as": "percent_field",
                    "expr": "100*datum.n_ships/datum.s"
                },
                {
                    "type": "formula",
                    "as": "data_orient",
                    "expr": "(datum.startAngle + datum.endAngle)/2 *180/PI"
                }
            ]
        }
    ],
    "scales": [
        {
            "name": "color",
            "type": "ordinal",
            "domain": {
                "data": "table",
                "field": "status"
            },
            "range": "greyscale"
        }
    ],
    "marks": [
        {
            "type": "arc",
            "from": {
                "data": "table"
            },
            "encode": {
                "enter": {
                    "fill": {
                        "scale": "color",
                        "field": "status"
                    },
                    "x": {
                        "signal": "width / 2"
                    },
                    "y": {
                        "signal": "height / 2"
                    },
                    "tooltip": {
                        "signal": "{'%': format(datum.percent_field, '0.1f'), 'N_ships': datum.n_ships}"
                    }
                },
                "update": {
                    "startAngle": {
                        "field": "startAngle"
                    },
                    "endAngle": {
                        "field": "endAngle"
                    },
                    "padAngle": {
                        "signal": "padAngle"
                    },
                    "innerRadius": {
                        "signal": "innerRadius"
                    },
                    "outerRadius": {
                        "signal": "width / 2"
                    },
                    "cornerRadius": {
                        "signal": "cornerRadius"
                    }
                }
            }
        },
        {
            "type": "text",
            "from": {
                "data": "table"
            },
            "encode": {
                "enter": {
                    "x": {
                        "field": {
                            "group": "width"
                        },
                        "mult": 0.5
                    },
                    "y": {
                        "field": {
                            "group": "height"
                        },
                        "mult": 0.5
                    },
                    "radius": {
                        "signal": "width / 4",
                        "field": "status",
                        "offset": 2
                    },
                    "theta": {
                        "signal": "(datum.startAngle + datum.endAngle)/2"
                    },
                    "angle": {
                        "signal": "(if((datum.data_orient-90>90), (datum.data_orient+90), (datum.data_orient-90)))"
                    },
                    "fill": {
                        "value": "#000"
                    },
                    "align": {
                        "value": "center"
                    },
                    "baseline": {
                        "value": "middle"
                    },
                    "text": {
                        "field": "status"
                    },
                    "fontSize": {
                        "signal": "width/14"
                    },
                    "font": {
                        "value": "Garamond"
                    },
                    "fontWeight": {
                        "value": "bold"
                    }
                }
            }
        }
    ],
    "config": {
        "range": {
            "greyscale": [
                "#e6e6e6",
                "#b3b3b3",
                "#919191"
            ]
        }
    }
}